{
    "metadata":{
        "type":"Geometry",
        "generator":"io_three",
        "version":3,
        "vertices":8,
        "normals":9,
        "materials":2,
        "uvs":1,
        "faces":10
    },
    "vertices":[-0.5,2.18557e-08,0.5,-0.416667,1.82131e-08,0.416667,-0.5,-2.18557e-08,-0.5,0.5,2.18557e-08,0.5,0.416667,1.82131e-08,0.416667,0.416667,-1.82131e-08,-0.416667,-0.416667,-1.82131e-08,-0.416667,0.5,-2.18557e-08,-0.5],
    "faces":[42,0,1,2,0,0,1,2,0,0,0,42,1,0,3,0,1,0,3,1,1,1,42,1,3,4,0,1,3,4,2,2,2,42,4,3,5,0,4,3,5,3,3,3,42,2,6,7,0,2,6,7,4,4,4,42,6,2,1,0,6,2,1,5,5,5,42,7,6,5,0,7,6,5,6,6,6,42,7,5,3,0,7,5,3,7,7,7,42,4,6,1,1,8,9,10,8,8,8,42,6,4,5,1,9,8,11,8,8,8],
    "uvs":[[0,0,0.164042,0.164042,0,1.9685,1.9685,0,1.80446,0.164042,1.80446,1.80446,0.164042,1.80446,1.9685,1.9685,4.51115,0.410105,0.410105,4.51115,0.410105,0.410105,4.51115,4.51115]],
    "normals":[2.75138e-14,1,-4.37114e-08,0,1,-4.37114e-08,-1.5688e-16,1,-4.37114e-08,-2.34243e-14,1,-4.37114e-08,-1.30734e-16,1,-4.37113e-08,3.73272e-14,1,-4.37114e-08,0,1,-4.37113e-08,-3.90996e-14,1,-4.37114e-08,-2.08432e-15,1,-4.37114e-08],
    "materials":[{
        "colorEmissive":[0,0,0],
        "shading":"phong",
        "opacity":1,
        "transparent":false,
        "visible":true,
        "wireframe":false,
        "blending":1,
        "depthTest":true,
        "depthWrite":true,
        "doubleSided":false,
        "DbgName":"[Polished Concrete New]",
        "DbgColor":15658734,
        "DbgIndex":0,
        "colorDiffuse":[0.625,0.625,0.634375],
        "specularCoef":50,
        "colorSpecular":[0.5,0.5,0.5]
    },{
        "colorEmissive":[0,0,0],
        "shading":"phong",
        "opacity":1,
        "transparent":false,
        "visible":true,
        "wireframe":false,
        "blending":1,
        "depthTest":true,
        "depthWrite":true,
        "doubleSided":false,
        "DbgName":"[Blacktop Old 02]",
        "DbgColor":15597568,
        "DbgIndex":1,
        "colorDiffuse":[0.446875,0.453125,0.453125],
        "specularCoef":50,
        "colorSpecular":[0.5,0.5,0.5]
    }]
}