{
    "metadata":{
        "type":"Geometry",
        "generator":"io_three",
        "version":3,
        "vertices":16,
        "normals":19,
        "materials":3,
        "uvs":1,
        "faces":22
    },
    "vertices":[0.0833333,1,0.5,-0.0833333,1,-0.5,-0.0833333,1,0.5,0.0833333,1,-0.5,-0.0833333,2.18557e-08,0.5,-0.0833333,-2.18557e-08,-0.5,0.0833333,-2.18557e-08,-0.5,0.0833333,2.18557e-08,0.5,-0.5,2.18557e-08,0.5,-0.416667,1.82131e-08,0.416667,-0.5,-2.18557e-08,-0.5,0.5,2.18557e-08,0.5,0.416667,1.82131e-08,0.416667,0.416667,-1.82131e-08,-0.416667,-0.416667,-1.82131e-08,-0.416667,0.5,-2.18557e-08,-0.5],
    "faces":[42,0,1,2,0,0,1,2,0,0,0,42,1,0,3,0,1,0,3,0,0,0,42,1,4,2,0,1,4,2,1,1,1,42,4,1,5,0,4,1,5,2,2,2,42,1,6,5,0,1,6,5,3,3,3,42,6,1,3,0,6,1,7,4,4,4,42,0,4,7,0,8,4,9,5,5,5,42,4,0,2,0,4,8,2,6,6,6,42,6,0,7,0,6,10,11,7,7,7,42,0,6,3,0,10,6,7,8,8,8,42,6,4,5,0,12,4,5,9,9,9,42,4,6,7,0,4,12,13,9,9,9,42,8,9,10,1,14,15,16,10,10,10,42,9,8,11,1,15,14,17,11,11,11,42,9,11,12,1,15,17,18,12,12,12,42,12,11,13,1,18,17,19,13,13,13,42,10,14,15,1,16,20,21,14,14,14,42,14,10,9,1,20,16,15,15,15,15,42,15,14,13,1,21,20,19,16,16,16,42,15,13,11,1,21,19,17,17,17,17,42,12,14,9,2,22,23,24,18,18,18,42,14,12,13,2,23,22,25,18,18,18],
    "uvs":[[6.99996,3.33331,4.99998,2.99999,6.99996,2.99998,4.99999,3.33332,6.99995,1,4.99998,1,4.66665,1,4.66665,2.99999,7.33329,2.99998,7.33328,0.999999,2.66667,2.99999,2.66666,1,4.99998,0.666671,6.99995,0.666671,0,0,0.164042,0.164042,0,1.9685,1.9685,0,1.80446,0.164042,1.80446,1.80446,0.164042,1.80446,1.9685,1.9685,4.51115,0.410105,0.410105,4.51115,0.410105,0.410105,4.51115,4.51115]],
    "normals":[0,1,-5.96046e-08,-1,-0,-0,-1,0,0,0,-1.19209e-07,-1,-0,-1.19209e-07,-1,0,2.98023e-08,1,-0,2.98023e-08,1,1,0,0,1,0,-0,0,-1,4.37114e-08,2.75138e-14,1,-4.37114e-08,0,1,-4.37114e-08,-1.5688e-16,1,-4.37114e-08,-2.34243e-14,1,-4.37114e-08,-1.30734e-16,1,-4.37113e-08,3.73272e-14,1,-4.37114e-08,0,1,-4.37113e-08,-3.90996e-14,1,-4.37114e-08,-2.08432e-15,1,-4.37114e-08],
    "materials":[{
        "colorEmissive":[0,0,0],
        "shading":"phong",
        "opacity":0,
        "transparent":false,
        "visible":true,
        "wireframe":false,
        "blending":1,
        "depthTest":true,
        "depthWrite":true,
        "doubleSided":false,
        "DbgName":"[Concrete Scored Jointless]",
        "DbgColor":15658734,
        "DbgIndex":0,
        "colorDiffuse":[0.4375,0.415625,0.396875],
        "specularCoef":50,
        "colorSpecular":[0.5,0.5,0.5]
    },{
        "colorEmissive":[0,0,0],
        "shading":"phong",
        "opacity":1,
        "transparent":false,
        "visible":true,
        "wireframe":false,
        "blending":1,
        "depthTest":true,
        "depthWrite":true,
        "doubleSided":false,
        "DbgName":"[Polished Concrete New]",
        "DbgColor":15597568,
        "DbgIndex":1,
        "colorDiffuse":[0.625,0.625,0.634375],
        "specularCoef":50,
        "colorSpecular":[0.5,0.5,0.5]
    },{
        "colorEmissive":[0,0,0],
        "shading":"phong",
        "opacity":1,
        "transparent":false,
        "visible":true,
        "wireframe":false,
        "blending":1,
        "depthTest":true,
        "depthWrite":true,
        "doubleSided":false,
        "DbgName":"[Blacktop Old 02]",
        "DbgColor":60928,
        "DbgIndex":2,
        "colorDiffuse":[0.446875,0.453125,0.453125],
        "specularCoef":50,
        "colorSpecular":[0.5,0.5,0.5]
    }]
}